%YAML 1.1
%TAG !u! tag:unity3d.com,2011:
--- !u!1045 &1
EditorBuildSettings:
  m_ObjectHideFlags: 0
  serializedVersion: 2
  m_Scenes:
  - enabled: 1
    path: Assets/Scenes/Title.unity
    guid: 2cda990e2423bbf4892e6590ba056729
  - enabled: 1
    path: Assets/Scenes/Criteria.unity
    guid: 4133f2dcb4a790544af7010cafb62a08
  - enabled: 1
    path: Assets/Scenes/End.unity
    guid: ca59db809769b0343a361220bde372d1
  m_configObjects: {}
